Euler ( 86.2 , 12.5,9.81 , 0 , 0 , 12 , 15 )

ans =

         0         0
    0.8000    7.8480
    1.6000   14.7856
    2.4000   20.9183
    3.2000   26.3396
    4.0000   31.1319
    4.8000   35.3684
    5.6000   39.1133
    6.4000   42.4238
    7.2000   45.3502
    8.0000   47.9372
    8.8000   50.2240
    9.6000   52.2456
   10.4000   54.0326
   11.2000   55.6123
   12.0000   57.0088