EulerCompound(0.04,1200,0,10,20)

ans =

   1.0e+03 *

         0    1.2000
    0.0005    1.2240
    0.0010    1.2485
    0.0015    1.2734
    0.0020    1.2989
    0.0025    1.3249
    0.0030    1.3514
    0.0035    1.3784
    0.0040    1.4060
    0.0045    1.4341
    0.0050    1.4628
    0.0055    1.4920
    0.0060    1.5219
    0.0065    1.5523
    0.0070    1.5834
    0.0075    1.6150
    0.0080    1.6473
    0.0085    1.6803
    0.0090    1.7139
    0.0095    1.7482
    0.0100    1.7831